EESchema Schematic File Version 2
LIBS:4xxx
LIBS:4xxx_IEEE
LIBS:74xGxx
LIBS:74xx
LIBS:74xx_IEEE
LIBS:Amplifier_Audio
LIBS:Amplifier_Buffer
LIBS:Amplifier_Current
LIBS:Amplifier_Difference
LIBS:Amplifier_Instrumentation
LIBS:Amplifier_Operational
LIBS:Amplifier_Video
LIBS:Analog
LIBS:Analog_ADC
LIBS:Analog_DAC
LIBS:Analog_Switch
LIBS:Audio
LIBS:Battery_Management
LIBS:Comparator
LIBS:Connector
LIBS:Connector_Generic
LIBS:Connector_Generic_MountingPin
LIBS:Connector_Generic_Shielded
LIBS:Converter_ACDC
LIBS:Converter_DCDC
LIBS:CPLD_Altera
LIBS:CPLD_Xilinx
LIBS:CPU
LIBS:CPU_NXP_6800
LIBS:CPU_NXP_68000
LIBS:CPU_PowerPC
LIBS:Device
LIBS:Diode
LIBS:Diode_Bridge
LIBS:Diode_Laser
LIBS:Display_Character
LIBS:Display_Graphic
LIBS:Driver_Display
LIBS:Driver_FET
LIBS:Driver_LED
LIBS:Driver_Motor
LIBS:Driver_Relay
LIBS:DSP_Freescale
LIBS:DSP_Microchip_DSPIC33
LIBS:DSP_Motorola
LIBS:DSP_Texas
LIBS:Filter
LIBS:FPGA_Microsemi
LIBS:FPGA_Xilinx
LIBS:FPGA_Xilinx_Artix7
LIBS:FPGA_Xilinx_Kintex7
LIBS:FPGA_Xilinx_Spartan6
LIBS:FPGA_Xilinx_Virtex5
LIBS:FPGA_Xilinx_Virtex6
LIBS:FPGA_Xilinx_Virtex7
LIBS:GPU
LIBS:Graphic
LIBS:Interface
LIBS:Interface_CAN_LIN
LIBS:Interface_CurrentLoop
LIBS:Interface_Ethernet
LIBS:Interface_Expansion
LIBS:Interface_HID
LIBS:Interface_LineDriver
LIBS:Interface_Optical
LIBS:Interface_Telecom
LIBS:Interface_UART
LIBS:Interface_USB
LIBS:Isolator
LIBS:Isolator_Analog
LIBS:Jumper
LIBS:LED
LIBS:Logic_LevelTranslator
LIBS:Logic_Programmable
LIBS:MCU_AnalogDevices
LIBS:MCU_Cypress
LIBS:MCU_Espressif
LIBS:MCU_Intel
LIBS:MCU_Microchip_8051
LIBS:MCU_Microchip_ATmega
LIBS:MCU_Microchip_ATtiny
LIBS:MCU_Microchip_AVR
LIBS:MCU_Microchip_PIC10
LIBS:MCU_Microchip_PIC12
LIBS:MCU_Microchip_PIC16
LIBS:MCU_Microchip_PIC18
LIBS:MCU_Microchip_PIC24
LIBS:MCU_Microchip_PIC32
LIBS:MCU_Microchip_SAME
LIBS:MCU_Microchip_SAML
LIBS:MCU_Module
LIBS:MCU_Nordic
LIBS:MCU_NXP_ColdFire
LIBS:MCU_NXP_HC11
LIBS:MCU_NXP_HC12
LIBS:MCU_NXP_HCS12
LIBS:MCU_NXP_Kinetis
LIBS:MCU_NXP_LPC
LIBS:MCU_NXP_MAC7100
LIBS:MCU_NXP_MCore
LIBS:MCU_NXP_S08
LIBS:MCU_Parallax
LIBS:MCU_SiFive
LIBS:MCU_SiliconLabs
LIBS:MCU_ST_STM8
LIBS:MCU_ST_STM32F0
LIBS:MCU_ST_STM32F1
LIBS:MCU_ST_STM32F2
LIBS:MCU_ST_STM32F3
LIBS:MCU_ST_STM32F4
LIBS:MCU_ST_STM32F7
LIBS:MCU_ST_STM32H7
LIBS:MCU_ST_STM32L0
LIBS:MCU_ST_STM32L1
LIBS:MCU_ST_STM32L4
LIBS:MCU_ST_STM32L4+
LIBS:MCU_Texas
LIBS:MCU_Texas_MSP430
LIBS:Mechanical
LIBS:Memory_Controller
LIBS:Memory_EEPROM
LIBS:Memory_EPROM
LIBS:Memory_Flash
LIBS:Memory_NVRAM
LIBS:Memory_RAM
LIBS:Memory_ROM
LIBS:Memory_UniqueID
LIBS:Motor
LIBS:Oscillator
LIBS:Potentiometer_Digital
LIBS:power
LIBS:Power_Management
LIBS:Power_Protection
LIBS:Power_Supervisor
LIBS:pspice
LIBS:Reference_Current
LIBS:Reference_Voltage
LIBS:Regulator_Controller
LIBS:Regulator_Current
LIBS:Regulator_Linear
LIBS:Regulator_SwitchedCapacitor
LIBS:Regulator_Switching
LIBS:Relay
LIBS:Relay_SolidState
LIBS:RF
LIBS:RF_AM_FM
LIBS:RF_Amplifier
LIBS:RF_Bluetooth
LIBS:RF_GPS
LIBS:RF_Mixer
LIBS:RF_Module
LIBS:RF_RFID
LIBS:RF_Switch
LIBS:RF_WiFi
LIBS:RF_ZigBee
LIBS:Sensor
LIBS:Sensor_Audio
LIBS:Sensor_Current
LIBS:Sensor_Gas
LIBS:Sensor_Humidity
LIBS:Sensor_Magnetic
LIBS:Sensor_Motion
LIBS:Sensor_Optical
LIBS:Sensor_Pressure
LIBS:Sensor_Proximity
LIBS:Sensor_Temperature
LIBS:Sensor_Touch
LIBS:Sensor_Voltage
LIBS:Switch
LIBS:Timer
LIBS:Timer_PLL
LIBS:Timer_RTC
LIBS:Transformer
LIBS:Transistor_Array
LIBS:Transistor_BJT
LIBS:Transistor_FET
LIBS:Transistor_IGBT
LIBS:Triac_Thyristor
LIBS:Valve
LIBS:Video
LIBS:beerbob
LIBS:BeerBob-cache
EELAYER 25 0
EELAYER END
$Descr A4 11693 8268
encoding utf-8
Sheet 1 2
Title "BeerBob"
Date ""
Rev "1.1"
Comp "Open Brewery"
Comment1 "https://gitlab.com/OpenBrewery/BeerBob_HW"
Comment2 "Licensed under GPLv2"
Comment3 "and data aggregation project"
Comment4 "Beer Bob - Fermentation measurement"
$EndDescr
$Comp
L Logo_Open_Hardware_Small #LOGO1
U 1 1 5A5E4F23
P 10900 6800
F 0 "#LOGO1" H 10900 7075 50  0001 C CNN
F 1 "Logo_Open_Hardware_Small" H 10900 6575 50  0001 C CNN
F 2 "" H 10900 6800 50  0001 C CNN
F 3 "" H 10900 6800 50  0001 C CNN
	1    10900 6800
	1    0    0    -1  
$EndComp
$Sheet
S 700  800  1000 1500
U 5AEB63E9
F0 "B_PSU" 60
F1 "BeerBob_PSU.sch" 60
F2 "VBAT_SENS" O R 1700 1200 59 
$EndSheet
$Comp
L ESP-12E U2
U 1 1 5AEC3262
P 4700 2800
F 0 "U2" H 4000 3800 50  0000 C CNN
F 1 "ESP-12E" H 5300 1800 50  0000 C CNN
F 2 "RF_Module:ESP-12E" H 4700 3050 50  0001 C CNN
F 3 "" H 4350 3100 50  0001 C CNN
	1    4700 2800
	1    0    0    -1  
$EndComp
$Comp
L GND #PWR01
U 1 1 5AEC3269
P 4700 4100
F 0 "#PWR01" H 4700 3850 50  0001 C CNN
F 1 "GND" H 4700 3950 50  0000 C CNN
F 2 "" H 4700 4100 50  0001 C CNN
F 3 "" H 4700 4100 50  0001 C CNN
	1    4700 4100
	1    0    0    -1  
$EndComp
Text Label 5700 3000 0    60   ~ 0
ESP_RX
Text Label 5700 2900 0    60   ~ 0
ESP_TX
Text Label 5700 2000 0    60   ~ 0
ESP_BOOT
Text Label 3300 2000 0    60   ~ 0
ESP_RST
$Comp
L R_Small R3
U 1 1 5AEC3276
P 3200 1700
F 0 "R3" H 3230 1720 50  0000 L CNN
F 1 "820k" H 3230 1660 50  0000 L CNN
F 2 "Resistor_SMD:R_0603_1608Metric" H 3200 1700 50  0001 C CNN
F 3 "" H 3200 1700 50  0001 C CNN
	1    3200 1700
	-1   0    0    1   
$EndComp
$Comp
L R_Small R2
U 1 1 5AEC327D
P 2900 1700
F 0 "R2" H 2930 1720 50  0000 L CNN
F 1 "820k" H 2930 1660 50  0000 L CNN
F 2 "Resistor_SMD:R_0603_1608Metric" H 2900 1700 50  0001 C CNN
F 3 "" H 2900 1700 50  0001 C CNN
	1    2900 1700
	-1   0    0    1   
$EndComp
$Comp
L R_Small R5
U 1 1 5AEC328B
P 6300 2000
F 0 "R5" H 6330 2020 50  0000 L CNN
F 1 "820k" H 6330 1960 50  0000 L CNN
F 2 "Resistor_SMD:R_0603_1608Metric" H 6300 2000 50  0001 C CNN
F 3 "" H 6300 2000 50  0001 C CNN
	1    6300 2000
	0    1    -1   0   
$EndComp
$Comp
L GND #PWR02
U 1 1 5AEC3294
P 6500 3200
F 0 "#PWR02" H 6500 2950 50  0001 C CNN
F 1 "GND" H 6500 3050 50  0000 C CNN
F 2 "" H 6500 3200 50  0001 C CNN
F 3 "" H 6500 3200 50  0001 C CNN
	1    6500 3200
	0    -1   -1   0   
$EndComp
$Comp
L GND #PWR03
U 1 1 5AEC329B
P 6500 2000
F 0 "#PWR03" H 6500 1750 50  0001 C CNN
F 1 "GND" H 6500 1850 50  0000 C CNN
F 2 "" H 6500 2000 50  0001 C CNN
F 3 "" H 6500 2000 50  0001 C CNN
	1    6500 2000
	0    -1   -1   0   
$EndComp
$Comp
L +3.3V #PWR04
U 1 1 5AEC32A4
P 3200 1300
F 0 "#PWR04" H 3200 1150 50  0001 C CNN
F 1 "+3.3V" H 3200 1440 50  0000 C CNN
F 2 "" H 3200 1300 50  0001 C CNN
F 3 "" H 3200 1300 50  0001 C CNN
	1    3200 1300
	1    0    0    -1  
$EndComp
$Comp
L +3.3V #PWR05
U 1 1 5AEC32AA
P 4700 1500
F 0 "#PWR05" H 4700 1350 50  0001 C CNN
F 1 "+3.3V" H 4700 1640 50  0000 C CNN
F 2 "" H 4700 1500 50  0001 C CNN
F 3 "" H 4700 1500 50  0001 C CNN
	1    4700 1500
	1    0    0    -1  
$EndComp
Text Label 6700 2700 0    60   ~ 0
SDA
Text Label 5700 3300 0    60   ~ 0
SCL
Text Label 5700 2500 0    60   ~ 0
VBAT_SENS
$Comp
L +3.3V #PWR06
U 1 1 5AEC32C9
P 8900 1300
F 0 "#PWR06" H 8900 1150 50  0001 C CNN
F 1 "+3.3V" H 8900 1440 50  0000 C CNN
F 2 "" H 8900 1300 50  0001 C CNN
F 3 "" H 8900 1300 50  0001 C CNN
	1    8900 1300
	1    0    0    -1  
$EndComp
$Comp
L GND #PWR07
U 1 1 5AEC32D3
P 8800 3800
F 0 "#PWR07" H 8800 3550 50  0001 C CNN
F 1 "GND" H 8800 3650 50  0000 C CNN
F 2 "" H 8800 3800 50  0001 C CNN
F 3 "" H 8800 3800 50  0001 C CNN
	1    8800 3800
	1    0    0    -1  
$EndComp
$Comp
L GND #PWR08
U 1 1 5AEC32DF
P 8100 3000
F 0 "#PWR08" H 8100 2750 50  0001 C CNN
F 1 "GND" H 8100 2850 50  0000 C CNN
F 2 "" H 8100 3000 50  0001 C CNN
F 3 "" H 8100 3000 50  0001 C CNN
	1    8100 3000
	1    0    0    -1  
$EndComp
$Comp
L C_Small C5
U 1 1 5AEC32E7
P 10000 2900
F 0 "C5" H 10010 2970 50  0000 L CNN
F 1 "100n" H 10010 2820 50  0000 L CNN
F 2 "Capacitor_SMD:C_0603_1608Metric" H 10000 2900 50  0001 C CNN
F 3 "" H 10000 2900 50  0001 C CNN
	1    10000 2900
	1    0    0    -1  
$EndComp
$Comp
L GND #PWR09
U 1 1 5AEC32F7
P 10000 3100
F 0 "#PWR09" H 10000 2850 50  0001 C CNN
F 1 "GND" H 10000 2950 50  0000 C CNN
F 2 "" H 10000 3100 50  0001 C CNN
F 3 "" H 10000 3100 50  0001 C CNN
	1    10000 3100
	1    0    0    -1  
$EndComp
Text Label 7900 2500 0    60   ~ 0
SDA
Text Label 7900 2400 0    60   ~ 0
SCL
$Comp
L MMA8452QT U3
U 1 1 5AEC3310
P 9000 2600
F 0 "U3" H 8550 3350 50  0000 C CNN
F 1 "MMA8452QT" H 9550 1700 50  0000 C CNN
F 2 "beerbob_footprints:NXP_QFN-16-1EP_3x3mm_Pitch0.5mm" H 8300 1600 60  0001 C CNN
F 3 "" H 8300 1600 60  0001 C CNN
	1    9000 2600
	1    0    0    -1  
$EndComp
$Comp
L R_Small R10
U 1 1 5AEC331F
P 7100 1400
F 0 "R10" H 7130 1420 50  0000 L CNN
F 1 "120k" H 7130 1360 50  0000 L CNN
F 2 "Resistor_SMD:R_0603_1608Metric" H 7100 1400 50  0001 C CNN
F 3 "" H 7100 1400 50  0001 C CNN
	1    7100 1400
	-1   0    0    1   
$EndComp
$Comp
L R_Small R11
U 1 1 5AEC3326
P 7400 1400
F 0 "R11" H 7430 1420 50  0000 L CNN
F 1 "120k" H 7430 1360 50  0000 L CNN
F 2 "Resistor_SMD:R_0603_1608Metric" H 7400 1400 50  0001 C CNN
F 3 "" H 7400 1400 50  0001 C CNN
	1    7400 1400
	-1   0    0    1   
$EndComp
$Comp
L +3.3V #PWR010
U 1 1 5AEC332D
P 7400 1200
F 0 "#PWR010" H 7400 1050 50  0001 C CNN
F 1 "+3.3V" H 7400 1340 50  0000 C CNN
F 2 "" H 7400 1200 50  0001 C CNN
F 3 "" H 7400 1200 50  0001 C CNN
	1    7400 1200
	1    0    0    -1  
$EndComp
$Comp
L +3.3V #PWR011
U 1 1 5AEC3333
P 7100 1200
F 0 "#PWR011" H 7100 1050 50  0001 C CNN
F 1 "+3.3V" H 7100 1340 50  0000 C CNN
F 2 "" H 7100 1200 50  0001 C CNN
F 3 "" H 7100 1200 50  0001 C CNN
	1    7100 1200
	1    0    0    -1  
$EndComp
Text Label 7700 1700 0    60   ~ 0
SCL
Text Label 7700 1900 0    60   ~ 0
SDA
Text Label 5700 2300 0    60   ~ 0
ESP_RST
Text Label 3300 2200 0    60   ~ 0
ESP_EN
$Comp
L +3.3V #PWR012
U 1 1 5AEC336F
P 2600 4700
F 0 "#PWR012" H 2600 4550 50  0001 C CNN
F 1 "+3.3V" H 2600 4840 50  0000 C CNN
F 2 "" H 2600 4700 50  0001 C CNN
F 3 "" H 2600 4700 50  0001 C CNN
	1    2600 4700
	1    0    0    -1  
$EndComp
$Comp
L GND #PWR013
U 1 1 5AEC337D
P 2600 6100
F 0 "#PWR013" H 2600 5850 50  0001 C CNN
F 1 "GND" H 2600 5950 50  0000 C CNN
F 2 "" H 2600 6100 50  0001 C CNN
F 3 "" H 2600 6100 50  0001 C CNN
	1    2600 6100
	1    0    0    -1  
$EndComp
$Comp
L C_Small C2
U 1 1 5AEC3387
P 1400 6000
F 0 "C2" H 1410 6070 50  0000 L CNN
F 1 "100n" H 1410 5920 50  0000 L CNN
F 2 "Capacitor_SMD:C_0603_1608Metric" H 1400 6000 50  0001 C CNN
F 3 "" H 1400 6000 50  0001 C CNN
	1    1400 6000
	1    0    0    -1  
$EndComp
$Comp
L +3.3V #PWR014
U 1 1 5AEC338E
P 1400 5800
F 0 "#PWR014" H 1400 5650 50  0001 C CNN
F 1 "+3.3V" H 1400 5940 50  0000 C CNN
F 2 "" H 1400 5800 50  0001 C CNN
F 3 "" H 1400 5800 50  0001 C CNN
	1    1400 5800
	1    0    0    -1  
$EndComp
$Comp
L GND #PWR015
U 1 1 5AEC3394
P 1400 6200
F 0 "#PWR015" H 1400 5950 50  0001 C CNN
F 1 "GND" H 1400 6050 50  0000 C CNN
F 2 "" H 1400 6200 50  0001 C CNN
F 3 "" H 1400 6200 50  0001 C CNN
	1    1400 6200
	1    0    0    -1  
$EndComp
$Comp
L R_Small R4
U 1 1 5AEC339C
P 3300 5100
F 0 "R4" H 3330 5120 50  0000 L CNN
F 1 "820k" H 3330 5060 50  0000 L CNN
F 2 "Resistor_SMD:R_0603_1608Metric" H 3300 5100 50  0001 C CNN
F 3 "" H 3300 5100 50  0001 C CNN
	1    3300 5100
	-1   0    0    1   
$EndComp
$Comp
L +3.3V #PWR016
U 1 1 5AEC33A3
P 3300 4900
F 0 "#PWR016" H 3300 4750 50  0001 C CNN
F 1 "+3.3V" H 3300 5040 50  0000 C CNN
F 2 "" H 3300 4900 50  0001 C CNN
F 3 "" H 3300 4900 50  0001 C CNN
	1    3300 4900
	1    0    0    -1  
$EndComp
Text Label 3400 5300 0    60   ~ 0
TEMP_ALERT
Text Label 1700 5300 0    60   ~ 0
SCL
Text Label 1700 5200 0    60   ~ 0
SDA
$Comp
L R_Small R1
U 1 1 5AEC33B2
P 2000 5700
F 0 "R1" H 2030 5720 50  0000 L CNN
F 1 "820k" H 2030 5660 50  0000 L CNN
F 2 "Resistor_SMD:R_0603_1608Metric" H 2000 5700 50  0001 C CNN
F 3 "" H 2000 5700 50  0001 C CNN
	1    2000 5700
	-1   0    0    1   
$EndComp
$Comp
L GND #PWR017
U 1 1 5AEC33B9
P 2000 5900
F 0 "#PWR017" H 2000 5650 50  0001 C CNN
F 1 "GND" H 2000 5750 50  0000 C CNN
F 2 "" H 2000 5900 50  0001 C CNN
F 3 "" H 2000 5900 50  0001 C CNN
	1    2000 5900
	1    0    0    -1  
$EndComp
Text Label 1900 1200 0    60   ~ 0
VBAT_SENS
Text Notes 9600 6300 0    60   ~ 0
Compatible temperature +\nhumidity sensors:\nHDC1080\nSHT21D\nSHT20
$Comp
L R_Small R7
U 1 1 5AEF561A
P 6300 2700
F 0 "R7" H 6330 2720 50  0000 L CNN
F 1 "0R" H 6330 2660 50  0000 L CNN
F 2 "Resistor_SMD:R_0603_1608Metric" H 6300 2700 50  0001 C CNN
F 3 "" H 6300 2700 50  0001 C CNN
	1    6300 2700
	0    1    1    0   
$EndComp
$Comp
L R_Small R6
U 1 1 5AEF6AE4
P 6300 2200
F 0 "R6" H 6330 2220 50  0000 L CNN
F 1 "0R" H 6330 2160 50  0000 L CNN
F 2 "Resistor_SMD:R_0603_1608Metric" H 6300 2200 50  0001 C CNN
F 3 "" H 6300 2200 50  0001 C CNN
	1    6300 2200
	0    1    1    0   
$EndComp
Text Notes 5400 1600 0    60   ~ 0
Assemble R7 by default\nAssemble other jumper\nin case sw I2C solution\nis selected
Text Notes 9600 5800 0    79   Italic 16
DESIGN NOTE:
Text Notes 5400 1200 0    79   Italic 16
DESIGN NOTE:
Text Notes 2000 6800 0    79   Italic 16
DESIGN NOTE:
Text Notes 2000 7200 0    61   ~ 0
Not assembled by default\nin favor of integrated\ntemperature + humidity \nsensor
$Comp
L TMP116 U1
U 1 1 5AF02628
P 2600 5300
F 0 "U1" H 2400 5650 50  0000 C CNN
F 1 "TMP116" H 2900 4850 50  0000 C CNN
F 2 "beerbob_footprints:TI_PWSON_6_3x3" H 1900 4300 60  0001 C CNN
F 3 "" H 1900 4300 60  0001 C CNN
	1    2600 5300
	1    0    0    -1  
$EndComp
$Comp
L GND #PWR018
U 1 1 5AEF63AE
P 7200 6200
F 0 "#PWR018" H 7200 5950 50  0001 C CNN
F 1 "GND" H 7200 6050 50  0000 C CNN
F 2 "" H 7200 6200 50  0001 C CNN
F 3 "" H 7200 6200 50  0001 C CNN
	1    7200 6200
	1    0    0    -1  
$EndComp
$Comp
L +3.3V #PWR019
U 1 1 5AEF651C
P 7200 4900
F 0 "#PWR019" H 7200 4750 50  0001 C CNN
F 1 "+3.3V" H 7200 5040 50  0000 C CNN
F 2 "" H 7200 4900 50  0001 C CNN
F 3 "" H 7200 4900 50  0001 C CNN
	1    7200 4900
	1    0    0    -1  
$EndComp
Text Label 6500 5500 0    60   ~ 0
SCL
Text Label 6500 5400 0    60   ~ 0
SDA
$Comp
L C_Small C8
U 1 1 5AEF887F
P 8700 5600
F 0 "C8" H 8710 5670 50  0000 L CNN
F 1 "100n" H 8710 5520 50  0000 L CNN
F 2 "Capacitor_SMD:C_0603_1608Metric" H 8700 5600 50  0001 C CNN
F 3 "" H 8700 5600 50  0001 C CNN
	1    8700 5600
	1    0    0    -1  
$EndComp
$Comp
L +3.3V #PWR020
U 1 1 5AEF8926
P 8700 5400
F 0 "#PWR020" H 8700 5250 50  0001 C CNN
F 1 "+3.3V" H 8700 5540 50  0000 C CNN
F 2 "" H 8700 5400 50  0001 C CNN
F 3 "" H 8700 5400 50  0001 C CNN
	1    8700 5400
	1    0    0    -1  
$EndComp
$Comp
L GND #PWR021
U 1 1 5AEF897C
P 8700 5800
F 0 "#PWR021" H 8700 5550 50  0001 C CNN
F 1 "GND" H 8700 5650 50  0000 C CNN
F 2 "" H 8700 5800 50  0001 C CNN
F 3 "" H 8700 5800 50  0001 C CNN
	1    8700 5800
	1    0    0    -1  
$EndComp
$Comp
L C_Small C9
U 1 1 5AEF9022
P 9100 5600
F 0 "C9" H 9110 5670 50  0000 L CNN
F 1 "10u/6.3V" H 9110 5520 50  0000 L CNN
F 2 "Capacitor_SMD:C_0603_1608Metric" H 9100 5600 50  0001 C CNN
F 3 "" H 9100 5600 50  0001 C CNN
	1    9100 5600
	1    0    0    -1  
$EndComp
$Comp
L +3.3V #PWR022
U 1 1 5AEF90BA
P 9100 5400
F 0 "#PWR022" H 9100 5250 50  0001 C CNN
F 1 "+3.3V" H 9100 5540 50  0000 C CNN
F 2 "" H 9100 5400 50  0001 C CNN
F 3 "" H 9100 5400 50  0001 C CNN
	1    9100 5400
	1    0    0    -1  
$EndComp
$Comp
L GND #PWR023
U 1 1 5AEF9221
P 9100 5800
F 0 "#PWR023" H 9100 5550 50  0001 C CNN
F 1 "GND" H 9100 5650 50  0000 C CNN
F 2 "" H 9100 5800 50  0001 C CNN
F 3 "" H 9100 5800 50  0001 C CNN
	1    9100 5800
	1    0    0    -1  
$EndComp
$Comp
L SHT21D U4
U 1 1 5AEFD1B2
P 7200 5500
F 0 "U4" H 7000 5850 50  0000 C CNN
F 1 "SHT21D" H 7500 5050 50  0000 C CNN
F 2 "beerbob_footprints:TI_PWSON_6_3x3" H 6500 4500 60  0001 C CNN
F 3 "" H 6500 4500 60  0001 C CNN
	1    7200 5500
	1    0    0    -1  
$EndComp
$Comp
L Conn_01x06_Male J4
U 1 1 5AFB45B1
P 1800 3300
F 0 "J4" H 1800 3600 50  0000 C CNN
F 1 "Conn_01x06_Male" H 1800 2900 50  0000 C CNN
F 2 "Connector_PinHeader_2.54mm:PinHeader_1x06_P2.54mm_Vertical" H 1800 3300 50  0001 C CNN
F 3 "" H 1800 3300 50  0001 C CNN
	1    1800 3300
	-1   0    0    -1  
$EndComp
Text Label 1000 3300 0    60   ~ 0
ESP_BOOT
Text Label 1000 3400 0    60   ~ 0
ESP_RST
Text Label 1000 3100 0    60   ~ 0
ESP_TX
Text Label 1000 3200 0    60   ~ 0
ESP_RX
$Comp
L +3.3V #PWR024
U 1 1 5AFB5394
P 1100 3500
F 0 "#PWR024" H 1100 3350 50  0001 C CNN
F 1 "+3.3V" H 1100 3640 50  0000 C CNN
F 2 "" H 1100 3500 50  0001 C CNN
F 3 "" H 1100 3500 50  0001 C CNN
	1    1100 3500
	0    -1   -1   0   
$EndComp
$Comp
L GND #PWR025
U 1 1 5AFB53F0
P 1300 3700
F 0 "#PWR025" H 1300 3450 50  0001 C CNN
F 1 "GND" H 1300 3550 50  0000 C CNN
F 2 "" H 1300 3700 50  0001 C CNN
F 3 "" H 1300 3700 50  0001 C CNN
	1    1300 3700
	1    0    0    -1  
$EndComp
Text Notes 1000 4100 0    61   ~ 12
Programming header
Text Label 5700 2100 0    60   ~ 0
TEMP_ALERT
$Comp
L GND #PWR026
U 1 1 5AFC95CB
P 7900 5900
F 0 "#PWR026" H 7900 5650 50  0001 C CNN
F 1 "GND" H 7900 5750 50  0000 C CNN
F 2 "" H 7900 5900 50  0001 C CNN
F 3 "" H 7900 5900 50  0001 C CNN
	1    7900 5900
	1    0    0    -1  
$EndComp
$Comp
L R_Small R23
U 1 1 5AFC91F5
P 7900 5700
F 0 "R23" H 7930 5720 50  0000 L CNN
F 1 "0R" H 7930 5660 50  0000 L CNN
F 2 "Resistor_SMD:R_0603_1608Metric" H 7900 5700 50  0001 C CNN
F 3 "" H 7900 5700 50  0001 C CNN
	1    7900 5700
	-1   0    0    1   
$EndComp
Wire Wire Line
	4700 3900 4700 4100
Wire Wire Line
	6200 2900 5600 2900
Wire Wire Line
	6200 3000 5600 3000
Wire Wire Line
	5600 3200 6200 3200
Wire Wire Line
	6200 2000 5600 2000
Wire Wire Line
	6400 3200 6500 3200
Wire Wire Line
	6400 2000 6500 2000
Wire Wire Line
	6200 2700 5600 2700
Wire Wire Line
	6200 3300 5600 3300
Wire Wire Line
	4700 1500 4700 1700
Wire Wire Line
	8900 1300 8900 1700
Wire Wire Line
	8900 1500 9100 1500
Wire Wire Line
	9100 1500 9100 1700
Connection ~ 8900 1500
Wire Wire Line
	8800 3600 8800 3800
Wire Wire Line
	8800 3700 9200 3700
Wire Wire Line
	9200 3700 9200 3600
Connection ~ 8800 3700
Wire Wire Line
	9000 3600 9000 3700
Connection ~ 9000 3700
Wire Wire Line
	8300 2800 8100 2800
Wire Wire Line
	8100 2800 8100 3000
Wire Wire Line
	9700 2600 10000 2600
Wire Wire Line
	10000 2600 10000 2800
Wire Wire Line
	10000 3000 10000 3100
Wire Wire Line
	7700 2400 8300 2400
Wire Wire Line
	7700 2500 8300 2500
Wire Wire Line
	3200 1300 3200 1600
Wire Wire Line
	2900 1600 2900 1500
Wire Wire Line
	2900 1500 3200 1500
Connection ~ 3200 1500
Wire Wire Line
	3200 1800 3200 2000
Wire Wire Line
	2900 2200 2900 1800
Wire Wire Line
	3200 2000 3800 2000
Wire Wire Line
	2900 2200 3800 2200
Wire Wire Line
	7100 1200 7100 1300
Wire Wire Line
	7400 1200 7400 1300
Wire Wire Line
	8000 1700 7400 1700
Wire Wire Line
	7400 1700 7400 1500
Wire Wire Line
	8000 1900 7100 1900
Wire Wire Line
	7100 1900 7100 1500
Wire Wire Line
	6200 2300 5600 2300
Wire Wire Line
	6200 2500 5600 2500
Wire Wire Line
	2600 4700 2600 4800
Wire Wire Line
	2600 5900 2600 6100
Wire Wire Line
	2700 5900 2700 6000
Wire Wire Line
	2700 6000 2600 6000
Connection ~ 2600 6000
Wire Wire Line
	1400 5900 1400 5800
Wire Wire Line
	1400 6100 1400 6200
Wire Wire Line
	3300 4900 3300 5000
Wire Wire Line
	3300 5200 3300 5300
Wire Wire Line
	3100 5300 4000 5300
Connection ~ 3300 5300
Wire Wire Line
	1500 5200 2100 5200
Wire Wire Line
	1500 5300 2100 5300
Wire Wire Line
	2000 5900 2000 5800
Wire Wire Line
	2100 5400 2000 5400
Wire Wire Line
	2000 5400 2000 5600
Wire Wire Line
	2500 1200 1700 1200
Wire Wire Line
	6400 2700 6900 2700
Wire Wire Line
	5600 2200 6200 2200
Wire Wire Line
	6400 2200 6600 2200
Wire Wire Line
	6600 2200 6600 2700
Connection ~ 6600 2700
Wire Notes Line
	6100 2100 7000 2100
Wire Notes Line
	10900 5600 10900 6400
Wire Notes Line
	10900 6400 9500 6400
Wire Notes Line
	9500 6400 9500 5600
Wire Notes Line
	9500 5600 10900 5600
Wire Notes Line
	5300 1000 5300 1700
Wire Notes Line
	5300 1700 6600 1700
Wire Notes Line
	6600 1700 6600 1000
Wire Notes Line
	6600 1000 5300 1000
Wire Notes Line
	1900 6600 3300 6600
Wire Notes Line
	3300 6600 3300 7300
Wire Notes Line
	3300 7300 1900 7300
Wire Notes Line
	1900 7300 1900 6600
Wire Wire Line
	7200 4900 7200 5000
Wire Wire Line
	7200 6100 7200 6200
Wire Wire Line
	6400 5400 6700 5400
Wire Wire Line
	6400 5500 6700 5500
Wire Wire Line
	8700 5800 8700 5700
Wire Wire Line
	8700 5500 8700 5400
Wire Wire Line
	9100 5700 9100 5800
Wire Wire Line
	9100 5400 9100 5500
Wire Wire Line
	1600 3600 1300 3600
Wire Wire Line
	1300 3600 1300 3700
Wire Wire Line
	900  3200 1600 3200
Wire Wire Line
	900  3300 1600 3300
Wire Wire Line
	900  3400 1600 3400
Wire Notes Line
	800  2700 2200 2700
Wire Notes Line
	2200 2700 2200 4000
Wire Notes Line
	2200 4000 800  4000
Wire Notes Line
	800  4000 800  2700
Wire Wire Line
	6400 2100 5600 2100
Wire Wire Line
	7700 5500 7900 5500
Wire Wire Line
	7900 5500 7900 5600
Wire Wire Line
	7900 5800 7900 5900
Wire Wire Line
	900  3100 1600 3100
Wire Wire Line
	1100 3500 1600 3500
Wire Notes Line
	7000 2100 7000 3200
Wire Notes Line
	6100 3200 6100 2100
Wire Notes Line
	7000 3200 6100 3200
$Comp
L R_Small R9
U 1 1 5AEC3284
P 6300 3200
F 0 "R9" H 6330 3220 50  0000 L CNN
F 1 "10k" H 6330 3160 50  0000 L CNN
F 2 "Resistor_SMD:R_0603_1608Metric" H 6300 3200 50  0001 C CNN
F 3 "" H 6300 3200 50  0001 C CNN
	1    6300 3200
	0    1    1    0   
$EndComp
$EndSCHEMATC
